{
  "title": "Old HSK 3",
  "tags": ["hsk", "old hsk"],
  "cards": [
    {
      "pinyin": "ài hào",
      "hanzi": "爱好",
      "english": "to like; to be fond of; to take pleasure in; to be keen on"
    },
    { "pinyin": "Bān", "hanzi": "班", "english": "team; class; grade" },
    { "pinyin": "bàn", "hanzi": "半", "english": "half" },
    { "pinyin": "bāng máng", "hanzi": "帮忙", "english": "to help" },
    { "pinyin": "Bāo", "hanzi": "包", "english": "to cover" },
    {
      "pinyin": "bié ren",
      "hanzi": "别人",
      "english": "other people; others; other person"
    },
    { "pinyin": "chā", "hanzi": "差", "english": "difference; discrepancy" },
    { "pinyin": "de", "hanzi": "地", "english": "-ly" },
    { "pinyin": "dì fāng", "hanzi": "地方", "english": "region" },
    { "pinyin": "dì tú", "hanzi": "地图", "english": "map" },
    { "pinyin": "Dōng", "hanzi": "东", "english": "east" },
    { "pinyin": "è", "hanzi": "饿", "english": "to be hungry" },
    { "pinyin": "fàng", "hanzi": "放", "english": "to put" },
    { "pinyin": "fēn", "hanzi": "分", "english": "to divide; to separate" },
    { "pinyin": "gān jìng", "hanzi": "干净", "english": "clean" },
    { "pinyin": "gēn", "hanzi": "跟", "english": "heel" },
    { "pinyin": "Guān", "hanzi": "关", "english": "mountain pass" },
    {
      "pinyin": "guó jiā",
      "hanzi": "国家",
      "english": "country; nation; state"
    },
    { "pinyin": "hái shi", "hanzi": "还是", "english": "still (as before)" },
    { "pinyin": "huài", "hanzi": "坏", "english": "bad" },
    { "pinyin": "Huā", "hanzi": "花", "english": "flower" },
    { "pinyin": "jì de", "hanzi": "记得", "english": "to remember" },
    {
      "pinyin": "jiàn miàn",
      "hanzi": "见面",
      "english": "to meet; to see each other"
    },
    { "pinyin": "Jiào", "hanzi": "教", "english": "to teach" },
    { "pinyin": "kě", "hanzi": "渴", "english": "thirsty" },
    { "pinyin": "kǒu", "hanzi": "口", "english": "mouth" },
    { "pinyin": "lǎo", "hanzi": "老", "english": "old (of people)" },
    {
      "pinyin": "Lóu",
      "hanzi": "楼",
      "english": "house with more than 1 story"
    },
    { "pinyin": "mǎ shàng", "hanzi": "马上", "english": "at once" },
    { "pinyin": "miàn bāo", "hanzi": "面包", "english": "bread" },
    { "pinyin": "míng bai", "hanzi": "明白", "english": "clear" },
    { "pinyin": "ná", "hanzi": "拿", "english": "to hold" },
    {
      "pinyin": "nǎi nai",
      "hanzi": "奶奶",
      "english": "(informal) grandma (paternal grandmother)"
    },
    { "pinyin": "Nán", "hanzi": "南", "english": "south" },
    { "pinyin": "nán", "hanzi": "难", "english": "difficult (to...)" },
    { "pinyin": "rèn zhēn", "hanzi": "认真", "english": "conscientious" },
    { "pinyin": "shàng wǎng", "hanzi": "上网", "english": "to go online" },
    { "pinyin": "shēng qì", "hanzi": "生气", "english": "to get angry" },
    { "pinyin": "shù", "hanzi": "树", "english": "tree" },
    { "pinyin": "tú shū guǎn", "hanzi": "图书馆", "english": "library" },
    { "pinyin": "wàng jì", "hanzi": "忘记", "english": "to forget" },
    { "pinyin": "Xī", "hanzi": "西", "english": "the West" },
    { "pinyin": "xǐ shǒu jiān", "hanzi": "洗手间", "english": "toilet" },
    { "pinyin": "xiān", "hanzi": "先", "english": "early" },
    {
      "pinyin": "yé ye",
      "hanzi": "爷爷",
      "english": "(coll.) father's father"
    },
    { "pinyin": "yī huì r", "hanzi": "一会儿", "english": "a moment" },
    { "pinyin": "yī biān", "hanzi": "一边", "english": "one side" },
    { "pinyin": "yī yàng", "hanzi": "一样", "english": "same" },
    { "pinyin": "yǒu míng", "hanzi": "有名", "english": "famous" },
    { "pinyin": "yòng", "hanzi": "用", "english": "to use" },
    { "pinyin": "zhàn", "hanzi": "站", "english": "station" },
    {
      "pinyin": "zhōng jiān",
      "hanzi": "中间",
      "english": "the middle; the inside"
    },
    { "pinyin": "zhòng yào", "hanzi": "重要", "english": "important" },
    { "pinyin": "ā", "hanzi": "啊", "english": "interjection of surprise" },
    { "pinyin": "ān jìng", "hanzi": "安静", "english": "quiet" },
    { "pinyin": "bàn fǎ", "hanzi": "办法", "english": "means" },
    { "pinyin": "bàn gōng shì", "hanzi": "办公室", "english": "office" },
    { "pinyin": "bǎo", "hanzi": "饱", "english": "to eat till full" },
    { "pinyin": "běi fāng", "hanzi": "北方", "english": "north" },
    { "pinyin": "bì xū", "hanzi": "必须", "english": "to have to" },
    { "pinyin": "cài dān", "hanzi": "菜单", "english": "menu" },
    { "pinyin": "cái", "hanzi": "才", "english": "ability; talent" },
    { "pinyin": "cān jiā", "hanzi": "参加", "english": "to participate" },
    {
      "pinyin": "céng",
      "hanzi": "层",
      "english": "to pile on top of one another"
    },
    { "pinyin": "cǎo", "hanzi": "草", "english": "grass" },
    {
      "pinyin": "chāo shì",
      "hanzi": "超市",
      "english": "supermarket (abbr. for 超级市场)"
    },
    { "pinyin": "chéng jì", "hanzi": "成绩", "english": "achievement" },
    { "pinyin": "chū xiàn", "hanzi": "出现", "english": "to appear" },
    {
      "pinyin": "cí yǔ",
      "hanzi": "词语",
      "english": "word (general term including monosyllables through to short phrases)"
    },
    { "pinyin": "dǎ suàn", "hanzi": "打算", "english": "to plan" },
    { "pinyin": "dài", "hanzi": "带", "english": "band" },
    { "pinyin": "dēng", "hanzi": "灯", "english": "lamp" },
    { "pinyin": "dī", "hanzi": "低", "english": "low" },
    {
      "pinyin": "dì tiě",
      "hanzi": "地铁",
      "english": "underground railway; subway"
    },
    { "pinyin": "dòng wù", "hanzi": "动物", "english": "animal" },
    { "pinyin": "duǎn", "hanzi": "短", "english": "short" },
    { "pinyin": "Duàn", "hanzi": "段", "english": "paragraph" },
    { "pinyin": "duō me", "hanzi": "多么", "english": "how (wonderful etc)" },
    {
      "pinyin": "ér qiě",
      "hanzi": "而且",
      "english": "(not only ...) but also"
    },
    {
      "pinyin": "fā xiàn",
      "hanzi": "发现",
      "english": "to notice; to become aware of"
    },
    { "pinyin": "fāng biàn", "hanzi": "方便", "english": "convenient" },
    { "pinyin": "fàng xīn", "hanzi": "放心", "english": "to feel relieved" },
    { "pinyin": "fù xí", "hanzi": "复习", "english": "to review" },
    { "pinyin": "gāng cái", "hanzi": "刚才", "english": "just now" },
    { "pinyin": "gēng", "hanzi": "更", "english": "to change or replace" },
    {
      "pinyin": "gōng yuán",
      "hanzi": "公园",
      "english": "park (for public recreation)"
    },
    { "pinyin": "gù shì", "hanzi": "故事", "english": "old practice" },
    {
      "pinyin": "guān xīn",
      "hanzi": "关心",
      "english": "to be concerned about"
    },
    { "pinyin": "guò qù", "hanzi": "过去", "english": "(in the) past" },
    { "pinyin": "hé", "hanzi": "河", "english": "river" },
    { "pinyin": "hēi bǎn", "hanzi": "黑板", "english": "blackboard" },
    { "pinyin": "hù zhào", "hanzi": "护照", "english": "passport" },
    { "pinyin": "huā yuán", "hanzi": "花园", "english": "garden" },
    { "pinyin": "huà", "hanzi": "画", "english": "to draw; to paint" },
    { "pinyin": "Huáng", "hanzi": "黄", "english": "yellow" },
    { "pinyin": "huàn", "hanzi": "换", "english": "to exchange" },
    { "pinyin": "huò zhě", "hanzi": "或者", "english": "or" },
    { "pinyin": "jī huì", "hanzi": "机会", "english": "opportunity" },
    { "pinyin": "jiǎn chá", "hanzi": "检查", "english": "inspection" },
    { "pinyin": "jiǎng", "hanzi": "讲", "english": "to speak" },
    { "pinyin": "jiàn kāng", "hanzi": "健康", "english": "health" },
    { "pinyin": "Jué", "hanzi": "角", "english": "angle" },
    { "pinyin": "jiǎo", "hanzi": "脚", "english": "foot" },
    { "pinyin": "jié mù", "hanzi": "节目", "english": "program" },
    { "pinyin": "jié rì", "hanzi": "节日", "english": "holiday" },
    { "pinyin": "jiē", "hanzi": "接", "english": "to receive" },
    { "pinyin": "jiè", "hanzi": "借", "english": "to lend" },
    {
      "pinyin": "jīng cháng",
      "hanzi": "经常",
      "english": "frequently; constantly; regularly; often"
    },
    { "pinyin": "jīng guò", "hanzi": "经过", "english": "to pass" },
    { "pinyin": "jīng lǐ", "hanzi": "经理", "english": "manager" },
    {
      "pinyin": "jǔ xíng",
      "hanzi": "举行",
      "english": "to hold (a meeting, ceremony etc)"
    },
    { "pinyin": "jù zi", "hanzi": "句子", "english": "sentence" },
    { "pinyin": "kě ài", "hanzi": "可爱", "english": "adorable" },
    { "pinyin": "kè", "hanzi": "刻", "english": "quarter (hour)" },
    { "pinyin": "kè rén", "hanzi": "客人", "english": "visitor" },
    { "pinyin": "kū", "hanzi": "哭", "english": "to cry; to weep" },
    { "pinyin": "kuài zi", "hanzi": "筷子", "english": "chopsticks" },
    { "pinyin": "Lán", "hanzi": "蓝", "english": "blue" },
    { "pinyin": "lí kāi", "hanzi": "离开", "english": "to depart; to leave" },
    { "pinyin": "lǐ wù", "hanzi": "礼物", "english": "gift; present" },
    { "pinyin": "liǎn", "hanzi": "脸", "english": "face" },
    { "pinyin": "liàn xí", "hanzi": "练习", "english": "to practice" },
    { "pinyin": "liàng", "hanzi": "辆", "english": "classifier for vehicles" },
    { "pinyin": "lu:4", "hanzi": "绿", "english": "green" },
    { "pinyin": "mǎn yì", "hanzi": "满意", "english": "satisfied" },
    { "pinyin": "Mǐ", "hanzi": "米", "english": "rice" },
    { "pinyin": "nán guò", "hanzi": "难过", "english": "to feel sad" },
    { "pinyin": "nián jí", "hanzi": "年级", "english": "grade" },
    { "pinyin": "nián qīng", "hanzi": "年轻", "english": "young" },
    { "pinyin": "diǎo", "hanzi": "鸟", "english": "penis" },
    {
      "pinyin": "nǔ lì",
      "hanzi": "努力",
      "english": "to make an effort; to try hard; to strive"
    },
    { "pinyin": "pá shān", "hanzi": "爬山", "english": "to climb a mountain" },
    {
      "pinyin": "pǔ tōng huà",
      "hanzi": "普通话",
      "english": "Mandarin (common language)"
    },
    { "pinyin": "qí tā", "hanzi": "其他", "english": "other" },
    { "pinyin": "jì", "hanzi": "骑", "english": "(Tw) saddle horse" },
    { "pinyin": "qīng chu", "hanzi": "清楚", "english": "clear" },
    { "pinyin": "rè qíng", "hanzi": "热情", "english": "cordial" },
    {
      "pinyin": "rán hòu",
      "hanzi": "然后",
      "english": "then; after that; afterwards"
    },
    {
      "pinyin": "rèn wéi",
      "hanzi": "认为",
      "english": "to believe; to think; to consider; to feel"
    },
    { "pinyin": "rú guǒ", "hanzi": "如果", "english": "if" },
    { "pinyin": "shēng yīn", "hanzi": "声音", "english": "voice" },
    { "pinyin": "shū fu", "hanzi": "舒服", "english": "comfortable" },
    {
      "pinyin": "shuǐ píng",
      "hanzi": "水平",
      "english": "level (of achievement etc)"
    },
    { "pinyin": "sī jī", "hanzi": "司机", "english": "chauffeur; driver" },
    {
      "pinyin": "suī rán",
      "hanzi": "虽然",
      "english": "although; even though (often used correlatively with 是 or 是 etc)"
    },
    { "pinyin": "tài yang", "hanzi": "太阳", "english": "sun" },
    { "pinyin": "téng", "hanzi": "疼", "english": "(it) hurts; sore" },
    { "pinyin": "tè bié", "hanzi": "特别", "english": "unusual; special" },
    { "pinyin": "tí gāo", "hanzi": "提高", "english": "to raise" },
    { "pinyin": "tǐ yù", "hanzi": "体育", "english": "sports" },
    { "pinyin": "tiáo", "hanzi": "条", "english": "strip" },
    {
      "pinyin": "tóng shì",
      "hanzi": "同事",
      "english": "colleague; co-worker"
    },
    { "pinyin": "tóu fa", "hanzi": "头发", "english": "hair (on the head)" },
    { "pinyin": "tuǐ", "hanzi": "腿", "english": "leg" },
    {
      "pinyin": "wán chéng",
      "hanzi": "完成",
      "english": "to complete; to accomplish"
    },
    { "pinyin": "wǎn", "hanzi": "碗", "english": "bowl" },
    { "pinyin": "mò", "hanzi": "万", "english": "used in 俟" },
    { "pinyin": "wèi shén me", "hanzi": "为什么", "english": "why?" },
    { "pinyin": "wèi", "hanzi": "位", "english": "position" },
    { "pinyin": "xí guàn", "hanzi": "习惯", "english": "habit" },
    { "pinyin": "xǐ zǎo", "hanzi": "洗澡", "english": "to bathe" },
    { "pinyin": "xiāng tóng", "hanzi": "相同", "english": "identical" },
    {
      "pinyin": "xiāng xìn",
      "hanzi": "相信",
      "english": "to be convinced (that sth is true); to believe; to accept sth as true"
    },
    { "pinyin": "xiàng", "hanzi": "像", "english": "to resemble" },
    { "pinyin": "xiǎo xīn", "hanzi": "小心", "english": "to be careful" },
    {
      "pinyin": "xiào zhǎng",
      "hanzi": "校长",
      "english": "(college, university) president"
    },
    { "pinyin": "xié", "hanzi": "鞋", "english": "shoe" },
    { "pinyin": "xìn", "hanzi": "信", "english": "letter" },
    { "pinyin": "xīn wén", "hanzi": "新闻", "english": "news" },
    { "pinyin": "yāo qiú", "hanzi": "要求", "english": "to request" },
    { "pinyin": "yī dìng", "hanzi": "一定", "english": "surely" },
    { "pinyin": "yǐ qián", "hanzi": "以前", "english": "before" },
    { "pinyin": "yī gòng", "hanzi": "一共", "english": "altogether" },
    { "pinyin": "yǐ hòu", "hanzi": "以后", "english": "after" },
    { "pinyin": "yī bān", "hanzi": "一般", "english": "same" },
    {
      "pinyin": "yī zhí",
      "hanzi": "一直",
      "english": "straight (in a straight line)"
    },
    {
      "pinyin": "yǐ wéi",
      "hanzi": "以为",
      "english": "to think (i.e. to take it to be true that ...) (Usually there is an implication that the notion is mistaken – except when expressing one's own current opinion.)"
    },
    { "pinyin": "yīn yuè", "hanzi": "音乐", "english": "music" },
    { "pinyin": "yīng gāi", "hanzi": "应该", "english": "ought to" },
    { "pinyin": "yín háng", "hanzi": "银行", "english": "bank" },
    { "pinyin": "yǐng xiǎng", "hanzi": "影响", "english": "influence" },
    { "pinyin": "yòu", "hanzi": "又", "english": "(once) again" },
    { "pinyin": "yuàn yì", "hanzi": "愿意", "english": "to wish" },
    { "pinyin": "yuè liang", "hanzi": "月亮", "english": "the moon" },
    {
      "pinyin": "Yuè",
      "hanzi": "越",
      "english": "generic word for peoples or states of south China or south Asia at different historical periods"
    },
    { "pinyin": "yún", "hanzi": "云", "english": "(classical) to say" },
    { "pinyin": "zhào piàn", "hanzi": "照片", "english": "photograph" },
    { "pinyin": "zhào gu", "hanzi": "照顾", "english": "to take care of" },
    { "pinyin": "zhǐ", "hanzi": "只", "english": "only" },
    { "pinyin": "zhōu mò", "hanzi": "周末", "english": "weekend" },
    { "pinyin": "zì jǐ", "hanzi": "自己", "english": "oneself" },
    {
      "pinyin": "zì diǎn",
      "hanzi": "字典",
      "english": "Chinese character dictionary (containing entries for single characters, contrasted with a 词典, which has entries for words of one or more characters)"
    },
    { "pinyin": "zhǔ yào", "hanzi": "主要", "english": "main" },
    { "pinyin": "zuì jìn", "hanzi": "最近", "english": "recently" },
    { "pinyin": "zuò yòng", "hanzi": "作用", "english": "to act on" },
    { "pinyin": "zuò yè", "hanzi": "作业", "english": "school assignment" },
    { "pinyin": "bǎ", "hanzi": "把", "english": "to hold; to grasp" },
    {
      "pinyin": "bān",
      "hanzi": "搬",
      "english": "to move (i.e. relocate oneself)"
    },
    { "pinyin": "bèi", "hanzi": "被", "english": "quilt" },
    { "pinyin": "bǐ jiào", "hanzi": "比较", "english": "to compare" },
    {
      "pinyin": "bǐ sài",
      "hanzi": "比赛",
      "english": "competition (sports etc)"
    },
    {
      "pinyin": "biàn huà",
      "hanzi": "变化",
      "english": "(intransitive) to change; to vary"
    },
    { "pinyin": "biǎo yǎn", "hanzi": "表演", "english": "play" },
    { "pinyin": "chèn shān", "hanzi": "衬衫", "english": "shirt" },
    { "pinyin": "chéng shì", "hanzi": "城市", "english": "city; town" },
    { "pinyin": "chú le", "hanzi": "除了", "english": "besides" },
    { "pinyin": "dāng rán", "hanzi": "当然", "english": "only natural" },
    { "pinyin": "gǎn", "hanzi": "敢", "english": "to dare" },
    { "pinyin": "gǎn mào", "hanzi": "感冒", "english": "to catch cold" },
    { "pinyin": "guān xi", "hanzi": "关系", "english": "relation" },
    { "pinyin": "guǒ zhī", "hanzi": "果汁", "english": "fruit juice" },
    { "pinyin": "hài pà", "hanzi": "害怕", "english": "to be afraid" },
    { "pinyin": "huán jìng", "hanzi": "环境", "english": "environment" },
    { "pinyin": "huì yì", "hanzi": "会议", "english": "meeting" },
    { "pinyin": "jiǎn dān", "hanzi": "简单", "english": "simple" },
    { "pinyin": "jié hūn", "hanzi": "结婚", "english": "to marry" },
    {
      "pinyin": "jiě jué",
      "hanzi": "解决",
      "english": "to solve; to resolve; to settle (a problem)"
    },
    { "pinyin": "jié shù", "hanzi": "结束", "english": "termination" },
    { "pinyin": "jiǔ", "hanzi": "久", "english": "(long) time" },
    { "pinyin": "jiù", "hanzi": "旧", "english": "old" },
    {
      "pinyin": "jué dìng",
      "hanzi": "决定",
      "english": "to decide (to do something)"
    },
    { "pinyin": "kōng tiáo", "hanzi": "空调", "english": "air conditioning" },
    { "pinyin": "kù zi", "hanzi": "裤子", "english": "pants" },
    { "pinyin": "Mǎ", "hanzi": "马", "english": "abbr. for Malaysia 马来西亚" },
    { "pinyin": "pán", "hanzi": "胖", "english": "healthy" },
    { "pinyin": "pí jiǔ", "hanzi": "啤酒", "english": "beer (loanword)" },
    {
      "pinyin": "qí shí",
      "hanzi": "其实",
      "english": "actually; in fact; really"
    },
    { "pinyin": "qí guài", "hanzi": "奇怪", "english": "strange" },
    { "pinyin": "qún zi", "hanzi": "裙子", "english": "skirt" },
    {
      "pinyin": "róng yì",
      "hanzi": "容易",
      "english": "easy; straightforward"
    },
    { "pinyin": "shǐ", "hanzi": "使", "english": "to make" },
    { "pinyin": "shì jiè", "hanzi": "世界", "english": "world" },
    { "pinyin": "Shuāng", "hanzi": "双", "english": "two" },
    { "pinyin": "táng", "hanzi": "糖", "english": "sugar" },
    { "pinyin": "tián", "hanzi": "甜", "english": "sweet" },
    { "pinyin": "tóng yì", "hanzi": "同意", "english": "to agree" },
    {
      "pinyin": "tū rán",
      "hanzi": "突然",
      "english": "sudden; abrupt; unexpected"
    },
    {
      "pinyin": "wèi le",
      "hanzi": "为了",
      "english": "for; for the purpose of; in order to"
    },
    { "pinyin": "wén huà", "hanzi": "文化", "english": "culture" },
    { "pinyin": "xiāng jiāo", "hanzi": "香蕉", "english": "banana" },
    {
      "pinyin": "xū yào",
      "hanzi": "需要",
      "english": "to need; to want; to demand; to require"
    },
    { "pinyin": "yóu xì", "hanzi": "游戏", "english": "game" },
    { "pinyin": "zhōng yú", "hanzi": "终于", "english": "at last" },
    { "pinyin": "zhǒng", "hanzi": "种", "english": "seed" },
    { "pinyin": "Zhù", "hanzi": "祝", "english": "to pray for" },
    {
      "pinyin": "zhù yì",
      "hanzi": "注意",
      "english": "to take note of; to pay attention to"
    },
    { "pinyin": "zǒng shì", "hanzi": "总是", "english": "always" },
    { "pinyin": "ā yí", "hanzi": "阿姨", "english": "maternal aunt" },
    { "pinyin": "ǎi", "hanzi": "矮", "english": "low" },
    { "pinyin": "bīng xiāng", "hanzi": "冰箱", "english": "icebox" },
    { "pinyin": "chí dào", "hanzi": "迟到", "english": "to arrive late" },
    { "pinyin": "dǎ sǎo", "hanzi": "打扫", "english": "to clean" },
    { "pinyin": "dān xīn", "hanzi": "担心", "english": "anxious" },
    { "pinyin": "diàn tī", "hanzi": "电梯", "english": "elevator" },
    { "pinyin": "duàn liàn", "hanzi": "锻炼", "english": "to toughen" },
    {
      "pinyin": "fā shāo",
      "hanzi": "发烧",
      "english": "to have a high temperature (from illness)"
    },
    { "pinyin": "fù jìn", "hanzi": "附近", "english": "nearby; neighboring" },
    { "pinyin": "gēn jù", "hanzi": "根据", "english": "according to" },
    { "pinyin": "guān yú", "hanzi": "关于", "english": "pertaining to" },
    {
      "pinyin": "jī hū",
      "hanzi": "几乎",
      "english": "almost; nearly; practically"
    },
    { "pinyin": "jí", "hanzi": "极", "english": "extremely" },
    { "pinyin": "jì jié", "hanzi": "季节", "english": "time" },
    { "pinyin": "jiē dào", "hanzi": "街道", "english": "street" },
    { "pinyin": "lì shǐ", "hanzi": "历史", "english": "history" },
    { "pinyin": "liǎo jiě", "hanzi": "了解", "english": "to understand" },
    { "pinyin": "mào zi", "hanzi": "帽子", "english": "hat" },
    { "pinyin": "pán zi", "hanzi": "盘子", "english": "tray" },
    { "pinyin": "sǎn", "hanzi": "伞", "english": "umbrella" },
    {
      "pinyin": "shū shu",
      "hanzi": "叔叔",
      "english": "father's younger brother"
    },
    { "pinyin": "shuā", "hanzi": "刷", "english": "to brush" },
    {
      "pinyin": "xīn xiān",
      "hanzi": "新鲜",
      "english": "fresh (experience, food etc)"
    },
    {
      "pinyin": "xìng qù",
      "hanzi": "兴趣",
      "english": "interest (desire to know about sth)"
    },
    { "pinyin": "xuǎn zé", "hanzi": "选择", "english": "to select" },
    { "pinyin": "yǎn jìng", "hanzi": "眼镜", "english": "spectacles" },
    {
      "pinyin": "yù dào",
      "hanzi": "遇到",
      "english": "to meet; to run into; to come across"
    },
    {
      "pinyin": "zháo jí",
      "hanzi": "着急",
      "english": "to worry; to feel anxious"
    },
    { "pinyin": "bí zi", "hanzi": "鼻子", "english": "nose" },
    { "pinyin": "bīn guǎn", "hanzi": "宾馆", "english": "guesthouse" },
    { "pinyin": "chú fáng", "hanzi": "厨房", "english": "kitchen" },
    { "pinyin": "cōng ming", "hanzi": "聪明", "english": "intelligent" },
    { "pinyin": "dàn gāo", "hanzi": "蛋糕", "english": "cake" },
    { "pinyin": "ěr duo", "hanzi": "耳朵", "english": "ear" },
    { "pinyin": "lín jū", "hanzi": "邻居", "english": "neighbor" },
    { "pinyin": "pú tao", "hanzi": "葡萄", "english": "grape" },
    { "pinyin": "shòu", "hanzi": "瘦", "english": "thin" },
    { "pinyin": "guā", "hanzi": "刮", "english": "to scrape" },
    { "pinyin": "qiān bǐ", "hanzi": "铅笔", "english": "(lead) pencil" },
    { "pinyin": "biǎo shì", "hanzi": "表示", "english": "to express" },
    { "pinyin": "chūn", "hanzi": "春", "english": "spring (season)" },
    { "pinyin": "diàn zǐ", "hanzi": "电子", "english": "electronic" },
    { "pinyin": "dōng", "hanzi": "冬", "english": "winter" },
    { "pinyin": "miàn tiáo", "hanzi": "面条", "english": "noodles" },
    { "pinyin": "Qiū", "hanzi": "秋", "english": "autumn" },
    { "pinyin": "shù xué", "hanzi": "数学", "english": "mathematics" },
    {
      "pinyin": "Xià",
      "hanzi": "夏",
      "english": "the Xia or Hsia dynasty c. 2000 BC"
    },
    { "pinyin": "xíng li xiāng", "hanzi": "行李箱", "english": "suitcase" },
    { "pinyin": "xióng māo", "hanzi": "熊猫", "english": "panda" },
    { "pinyin": "zhào xiàng jī", "hanzi": "照相机", "english": "camera" }
  ]
}
